[gd_scene load_steps=7 format=2]

[ext_resource path="res://RoomBuilding/FloorTile.gd" type="Script" id=1]
[ext_resource path="res://RoomBuilding/CyberTilePink.png" type="Texture" id=2]

[sub_resource type="RectangleShape2D" id=1]
extents = Vector2( 125, 125 )

[sub_resource type="Animation" id=2]
resource_name = "Active"
length = 0.2
tracks/0/type = "value"
tracks/0/path = NodePath("Sprite:scale")
tracks/0/interp = 1
tracks/0/loop_wrap = true
tracks/0/imported = false
tracks/0/enabled = true
tracks/0/keys = {
"times": PoolRealArray( 0.2 ),
"transitions": PoolRealArray( 1 ),
"update": 0,
"values": [ Vector2( 0.5, 0.5 ) ]
}
tracks/1/type = "value"
tracks/1/path = NodePath("Sprite:modulate")
tracks/1/interp = 1
tracks/1/loop_wrap = true
tracks/1/imported = false
tracks/1/enabled = true
tracks/1/keys = {
"times": PoolRealArray( 0.2 ),
"transitions": PoolRealArray( 1 ),
"update": 0,
"values": [ Color( 1, 1, 1, 1 ) ]
}
tracks/2/type = "value"
tracks/2/path = NodePath(".:modulate")
tracks/2/interp = 1
tracks/2/loop_wrap = true
tracks/2/imported = false
tracks/2/enabled = true
tracks/2/keys = {
"times": PoolRealArray( 0 ),
"transitions": PoolRealArray( 1 ),
"update": 0,
"values": [ Color( 1, 1, 1, 1 ) ]
}

[sub_resource type="Animation" id=3]
resource_name = "Reveal"
length = 0.3
tracks/0/type = "value"
tracks/0/path = NodePath(".:modulate")
tracks/0/interp = 1
tracks/0/loop_wrap = true
tracks/0/imported = false
tracks/0/enabled = true
tracks/0/keys = {
"times": PoolRealArray( 0 ),
"transitions": PoolRealArray( 1 ),
"update": 0,
"values": [ Color( 1, 1, 1, 1 ) ]
}
tracks/1/type = "value"
tracks/1/path = NodePath("Sprite:scale")
tracks/1/interp = 1
tracks/1/loop_wrap = true
tracks/1/imported = false
tracks/1/enabled = true
tracks/1/keys = {
"times": PoolRealArray( 0, 0.3 ),
"transitions": PoolRealArray( 1, 1 ),
"update": 0,
"values": [ Vector2( 0.01, 0.01 ), Vector2( 0.45, 0.45 ) ]
}

[sub_resource type="Animation" id=4]
length = 0.2
tracks/0/type = "value"
tracks/0/path = NodePath("Sprite:scale")
tracks/0/interp = 1
tracks/0/loop_wrap = true
tracks/0/imported = false
tracks/0/enabled = true
tracks/0/keys = {
"times": PoolRealArray( 0.2 ),
"transitions": PoolRealArray( 1 ),
"update": 0,
"values": [ Vector2( 0.45, 0.45 ) ]
}
tracks/1/type = "value"
tracks/1/path = NodePath("Sprite:modulate")
tracks/1/interp = 1
tracks/1/loop_wrap = true
tracks/1/imported = false
tracks/1/enabled = true
tracks/1/keys = {
"times": PoolRealArray( 0.2 ),
"transitions": PoolRealArray( 1 ),
"update": 0,
"values": [ Color( 0.705882, 0.705882, 0.705882, 1 ) ]
}

[node name="FloorTile" type="Area2D"]
modulate = Color( 1, 1, 1, 0 )
z_index = -1
collision_layer = 8
collision_mask = 21
script = ExtResource( 1 )

[node name="Sprite" type="Sprite" parent="."]
modulate = Color( 0.705882, 0.705882, 0.705882, 1 )
scale = Vector2( 0.01, 0.01 )
texture = ExtResource( 2 )
__meta__ = {
"_editor_description_": "0"
}

[node name="CollisionShape2D" type="CollisionShape2D" parent="."]
shape = SubResource( 1 )

[node name="AnimationPlayer" type="AnimationPlayer" parent="."]
anims/Active = SubResource( 2 )
anims/Reveal = SubResource( 3 )
anims/inactive = SubResource( 4 )
blend_times = [ "Active", "Active", 0.2, "Active", "inactive", 0.2, "inactive", "Active", 0.2, "inactive", "inactive", 0.2 ]
